-------------------------------------------------------------------------------
Test set: me.rannarallorg.db.MovieDaoTest
-------------------------------------------------------------------------------
Tests run: 3, Failures: 0, Errors: 0, Skipped: 0, Time elapsed: 0.383 sec - in me.rannarallorg.db.MovieDaoTest
